{
	"info": {
		"_postman_id": "24882fb0-ebbe-4d0f-8c11-fdc6a42fbedb",
		"name": "unitech",
		"schema": "https://schema.getpostman.com/json/collection/v2.1.0/collection.json"
	},
	"item": [
		{
			"name": "1. register",
			"item": [
				{
					"name": "sign-up-with-invalid-credentials",
					"request": {
						"method": "POST",
						"header": [],
						"body": {
							"mode": "raw",
							"raw": "{\n    \"pin\": \"\",\n    \"password\": \"\"\n}\n",
							"options": {
								"raw": {
									"language": "json"
								}
							}
						},
						"url": {
							"raw": "localhost:9090/auth/sign-up",
							"host": [
								"localhost"
							],
							"port": "9090",
							"path": [
								"auth",
								"sign-up"
							]
						}
					},
					"response": []
				},
				{
					"name": "sign-up-with-used-pin",
					"request": {
						"method": "POST",
						"header": [],
						"body": {
							"mode": "raw",
							"raw": "{\n    \"pin\": \"admin00\",\n    \"password\": \"123456\"\n}\n",
							"options": {
								"raw": {
									"language": "json"
								}
							}
						},
						"url": {
							"raw": "localhost:9090/auth/sign-up",
							"host": [
								"localhost"
							],
							"port": "9090",
							"path": [
								"auth",
								"sign-up"
							]
						}
					},
					"response": []
				},
				{
					"name": "sign-up-with-valid-credentials",
					"request": {
						"method": "POST",
						"header": [],
						"body": {
							"mode": "raw",
							"raw": "{\n    \"pin\": \"qwert12\",\n    \"password\": \"123456\"\n}\n",
							"options": {
								"raw": {
									"language": "json"
								}
							}
						},
						"url": {
							"raw": "localhost:9090/auth/sign-up",
							"host": [
								"localhost"
							],
							"port": "9090",
							"path": [
								"auth",
								"sign-up"
							]
						}
					},
					"response": []
				}
			]
		},
		{
			"name": "2. login",
			"item": [
				{
					"name": "sign-in-with-invalid-credentials",
					"request": {
						"method": "POST",
						"header": [],
						"body": {
							"mode": "raw",
							"raw": "{\n    \"pin\": \"\",\n    \"password\": \"\"\n}",
							"options": {
								"raw": {
									"language": "json"
								}
							}
						},
						"url": {
							"raw": "localhost:9090/auth/sign-in",
							"host": [
								"localhost"
							],
							"port": "9090",
							"path": [
								"auth",
								"sign-in"
							]
						}
					},
					"response": []
				},
				{
					"name": "sign-in-with-valid-credentials",
					"request": {
						"method": "POST",
						"header": [],
						"body": {
							"mode": "raw",
							"raw": "{\n    \"pin\": \"qwert12\",\n    \"password\": \"123456\"\n}",
							"options": {
								"raw": {
									"language": "json"
								}
							}
						},
						"url": {
							"raw": "localhost:9090/auth/sign-in",
							"host": [
								"localhost"
							],
							"port": "9090",
							"path": [
								"auth",
								"sign-in"
							]
						}
					},
					"response": []
				}
			]
		},
		{
			"name": "3. get-active-accounts",
			"item": [
				{
					"name": "get-user-active-accounts",
					"request": {
						"auth": {
							"type": "basic",
							"basic": [
								{
									"key": "username",
									"value": "admin00",
									"type": "string"
								},
								{
									"key": "password",
									"value": "123456",
									"type": "string"
								}
							]
						},
						"method": "GET",
						"header": [],
						"url": {
							"raw": "localhost:9090/user/accounts",
							"host": [
								"localhost"
							],
							"port": "9090",
							"path": [
								"user",
								"accounts"
							]
						}
					},
					"response": []
				}
			]
		},
		{
			"name": "4. transfer-account-to-account",
			"item": [
				{
					"name": "successful-transfer",
					"request": {
						"auth": {
							"type": "basic",
							"basic": [
								{
									"key": "username",
									"value": "admin00",
									"type": "string"
								},
								{
									"key": "password",
									"value": "123456",
									"type": "string"
								}
							]
						},
						"method": "PUT",
						"header": [],
						"body": {
							"mode": "raw",
							"raw": "{\n    \"sender\": \"ADMIN001\",\n    \"receiver\": \"ADMIN002\",\n    \"transferAmount\": \"10.0\"\n}",
							"options": {
								"raw": {
									"language": "json"
								}
							}
						},
						"url": {
							"raw": "localhost:9090/user/transfer",
							"host": [
								"localhost"
							],
							"port": "9090",
							"path": [
								"user",
								"transfer"
							]
						}
					},
					"response": []
				},
				{
					"name": "no-enough-amount-exception",
					"request": {
						"auth": {
							"type": "basic",
							"basic": [
								{
									"key": "username",
									"value": "admin00",
									"type": "string"
								},
								{
									"key": "password",
									"value": "123456",
									"type": "string"
								}
							]
						},
						"method": "PUT",
						"header": [],
						"body": {
							"mode": "raw",
							"raw": "{\n    \"sender\": \"ADMIN001\",\n    \"receiver\": \"ADMIN002\",\n    \"transferAmount\": 10000\n}",
							"options": {
								"raw": {
									"language": "json"
								}
							}
						},
						"url": {
							"raw": "localhost:9090/user/transfer",
							"host": [
								"localhost"
							],
							"port": "9090",
							"path": [
								"user",
								"transfer"
							]
						}
					},
					"response": []
				},
				{
					"name": "transfer-to-same-account-exception",
					"request": {
						"auth": {
							"type": "basic",
							"basic": [
								{
									"key": "username",
									"value": "admin00",
									"type": "string"
								},
								{
									"key": "password",
									"value": "123456",
									"type": "string"
								}
							]
						},
						"method": "PUT",
						"header": [],
						"body": {
							"mode": "raw",
							"raw": "{\n    \"sender\": \"ADMIN001\",\n    \"receiver\": \"ADMIN001\",\n    \"transferAmount\": 10\n}",
							"options": {
								"raw": {
									"language": "json"
								}
							}
						},
						"url": {
							"raw": "localhost:9090/user/transfer",
							"host": [
								"localhost"
							],
							"port": "9090",
							"path": [
								"user",
								"transfer"
							]
						}
					},
					"response": []
				},
				{
					"name": "transfer-to-inactive-account-exception",
					"request": {
						"auth": {
							"type": "basic",
							"basic": [
								{
									"key": "username",
									"value": "admin00",
									"type": "string"
								},
								{
									"key": "password",
									"value": "123456",
									"type": "string"
								}
							]
						},
						"method": "PUT",
						"header": [],
						"body": {
							"mode": "raw",
							"raw": "{\n    \"sender\": \"ADMIN001\",\n    \"receiver\": \"ADMIN003\",\n    \"transferAmount\": 10\n}",
							"options": {
								"raw": {
									"language": "json"
								}
							}
						},
						"url": {
							"raw": "localhost:9090/user/transfer",
							"host": [
								"localhost"
							],
							"port": "9090",
							"path": [
								"user",
								"transfer"
							]
						}
					},
					"response": []
				},
				{
					"name": "transfer-to-non-existing-account-exception",
					"request": {
						"auth": {
							"type": "basic",
							"basic": [
								{
									"key": "username",
									"value": "admin00",
									"type": "string"
								},
								{
									"key": "password",
									"value": "123456",
									"type": "string"
								}
							]
						},
						"method": "PUT",
						"header": [],
						"body": {
							"mode": "raw",
							"raw": "{\n    \"sender\": \"ADMIN001\",\n    \"receiver\": \"ADMIN004\",\n    \"transferAmount\": 10\n}",
							"options": {
								"raw": {
									"language": "json"
								}
							}
						},
						"url": {
							"raw": "localhost:9090/user/transfer",
							"host": [
								"localhost"
							],
							"port": "9090",
							"path": [
								"user",
								"transfer"
							]
						}
					},
					"response": []
				}
			]
		},
		{
			"name": "5. convert-currencies",
			"item": [
				{
					"name": "convert-currency",
					"protocolProfileBehavior": {
						"disableBodyPruning": true
					},
					"request": {
						"auth": {
							"type": "basic",
							"basic": [
								{
									"key": "username",
									"value": "admin00",
									"type": "string"
								},
								{
									"key": "password",
									"value": "123456",
									"type": "string"
								}
							]
						},
						"method": "GET",
						"header": [],
						"body": {
							"mode": "raw",
							"raw": "{\n    \"fromCurrency\": \"AZN\",\n    \"toCurrency\": \"EUR\"\n}\n",
							"options": {
								"raw": {
									"language": "json"
								}
							}
						},
						"url": {
							"raw": "localhost:9090/user/convert-currency",
							"host": [
								"localhost"
							],
							"port": "9090",
							"path": [
								"user",
								"convert-currency"
							]
						}
					},
					"response": []
				}
			]
		}
	]
}